<svg width="286" height="314" viewBox="0 0 286 314" fill="none" xmlns="http://www.w3.org/2000/svg">
<g clip-path="url(#clip0_101_72)">
<path d="M105.986 128.604C104.781 128.604 103.626 129.087 102.775 129.947C101.923 130.806 101.444 131.972 101.444 133.188V133.188V208.812C101.444 210.028 101.923 211.194 102.775 212.053C103.626 212.913 104.781 213.396 105.986 213.396H181.014C182.219 213.396 183.374 212.913 184.226 212.053C185.078 211.194 185.556 210.028 185.556 208.812V133.188C185.556 131.972 185.078 130.806 184.226 129.947C183.374 129.087 182.219 128.604 181.014 128.604H105.986Z" stroke="#53B38D" stroke-linecap="round" stroke-linejoin="round"/>
<path d="M160.123 143.775C162.13 143.775 164.093 144.376 165.762 145.501C167.431 146.627 168.732 148.227 169.501 150.099C170.269 151.97 170.47 154.03 170.078 156.017C169.687 158.004 168.72 159.83 167.3 161.262C165.881 162.695 164.072 163.67 162.103 164.066C160.134 164.461 158.093 164.258 156.238 163.483C154.384 162.707 152.798 161.394 151.683 159.71C150.567 158.025 149.972 156.045 149.972 154.019C149.972 151.302 151.042 148.696 152.945 146.775C154.849 144.854 157.431 143.775 160.123 143.775V143.775ZM134.417 164.125L150.812 180.671C150.96 180.823 151.137 180.944 151.332 181.027C151.527 181.11 151.736 181.152 151.948 181.152C152.159 181.152 152.369 181.11 152.564 181.027C152.759 180.944 152.935 180.823 153.083 180.671L156.217 177.508C156.519 177.206 156.927 177.036 157.352 177.036C157.778 177.036 158.186 177.206 158.488 177.508L176.223 195.406C176.45 195.631 176.605 195.919 176.668 196.233C176.732 196.547 176.7 196.873 176.578 197.169C176.456 197.465 176.248 197.717 175.983 197.893C175.717 198.069 175.405 198.161 175.088 198.156H111.89C111.599 198.159 111.312 198.08 111.062 197.929C110.812 197.778 110.608 197.561 110.472 197.3C110.336 197.04 110.273 196.747 110.291 196.453C110.309 196.16 110.407 195.877 110.573 195.635L132.146 164.423C132.273 164.25 132.434 164.104 132.618 163.994C132.803 163.885 133.007 163.814 133.219 163.787C133.431 163.759 133.646 163.774 133.852 163.833C134.058 163.891 134.25 163.99 134.417 164.125V164.125Z" stroke="#53B38D" stroke-linecap="round" stroke-linejoin="round"/>
<path d="M185.119 144.125C188.568 144.125 191.876 142.742 194.315 140.281C196.754 137.819 198.125 134.481 198.125 131C198.125 127.519 196.754 124.181 194.315 121.719C191.876 119.258 188.568 117.875 185.119 117.875C181.67 117.875 178.362 119.258 175.923 121.719C173.484 124.181 172.113 127.519 172.113 131C172.113 134.481 173.484 137.819 175.923 140.281C178.362 142.742 181.67 144.125 185.119 144.125V144.125ZM184.004 132.125H179.731C179.435 132.125 179.152 132.006 178.943 131.795C178.734 131.585 178.616 131.298 178.616 131C178.616 130.702 178.734 130.415 178.943 130.205C179.152 129.994 179.435 129.875 179.731 129.875H184.004V125.563C184.004 125.264 184.122 124.978 184.331 124.767C184.54 124.556 184.823 124.438 185.119 124.438C185.415 124.438 185.698 124.556 185.907 124.767C186.116 124.978 186.234 125.264 186.234 125.563V129.875H190.507C190.803 129.875 191.086 129.994 191.295 130.205C191.504 130.415 191.622 130.702 191.622 131C191.622 131.298 191.504 131.585 191.295 131.795C191.086 132.006 190.803 132.125 190.507 132.125H186.234V136.438C186.234 136.736 186.116 137.022 185.907 137.233C185.698 137.444 185.415 137.562 185.119 137.562C184.823 137.562 184.54 137.444 184.331 137.233C184.122 137.022 184.004 136.736 184.004 136.438V132.125V132.125Z" fill="#53B38D"/>
</g>
<path d="M11.22 8.24C11.22 8.94667 11.0533 9.61333 10.72 10.24C10.3867 10.8667 9.85333 11.38 9.12 11.78C8.38667 12.1667 7.44667 12.36 6.3 12.36H3.78V18H1.5V4.1H6.3C7.36667 4.1 8.26667 4.28667 9 4.66C9.74667 5.02 10.3 5.51333 10.66 6.14C11.0333 6.76667 11.22 7.46667 11.22 8.24ZM6.3 10.5C7.16667 10.5 7.81333 10.3067 8.24 9.92C8.66667 9.52 8.88 8.96 8.88 8.24C8.88 6.72 8.02 5.96 6.3 5.96H3.78V10.5H6.3ZM15.6745 8.58C16.0079 8.02 16.4479 7.58667 16.9945 7.28C17.5545 6.96 18.2145 6.8 18.9745 6.8V9.16H18.3945C17.5012 9.16 16.8212 9.38667 16.3545 9.84C15.9012 10.2933 15.6745 11.08 15.6745 12.2V18H13.3945V6.98H15.6745V8.58ZM31.1703 12.22C31.1703 12.6333 31.1436 13.0067 31.0903 13.34H22.6703C22.737 14.22 23.0636 14.9267 23.6503 15.46C24.237 15.9933 24.957 16.26 25.8103 16.26C27.037 16.26 27.9036 15.7467 28.4103 14.72H30.8703C30.537 15.7333 29.9303 16.5667 29.0503 17.22C28.1836 17.86 27.1036 18.18 25.8103 18.18C24.757 18.18 23.8103 17.9467 22.9703 17.48C22.1436 17 21.4903 16.3333 21.0103 15.48C20.5436 14.6133 20.3103 13.6133 20.3103 12.48C20.3103 11.3467 20.537 10.3533 20.9903 9.5C21.457 8.63333 22.1036 7.96667 22.9303 7.5C23.7703 7.03333 24.7303 6.8 25.8103 6.8C26.8503 6.8 27.777 7.02667 28.5903 7.48C29.4036 7.93333 30.037 8.57333 30.4903 9.4C30.9436 10.2133 31.1703 11.1533 31.1703 12.22ZM28.7903 11.5C28.777 10.66 28.477 9.98667 27.8903 9.48C27.3036 8.97333 26.577 8.72 25.7103 8.72C24.9236 8.72 24.2503 8.97333 23.6903 9.48C23.1303 9.97333 22.797 10.6467 22.6903 11.5H28.7903ZM37.6741 15.96L40.7941 6.98H43.2141L39.0141 18H36.2941L32.1141 6.98H34.5541L37.6741 15.96ZM46.0975 5.52C45.6842 5.52 45.3375 5.38 45.0575 5.1C44.7775 4.82 44.6375 4.47333 44.6375 4.06C44.6375 3.64667 44.7775 3.3 45.0575 3.02C45.3375 2.74 45.6842 2.6 46.0975 2.6C46.4975 2.6 46.8375 2.74 47.1175 3.02C47.3975 3.3 47.5375 3.64667 47.5375 4.06C47.5375 4.47333 47.3975 4.82 47.1175 5.1C46.8375 5.38 46.4975 5.52 46.0975 5.52ZM47.2175 6.98V18H44.9375V6.98H47.2175ZM60.3109 12.22C60.3109 12.6333 60.2843 13.0067 60.2309 13.34H51.8109C51.8776 14.22 52.2043 14.9267 52.7909 15.46C53.3776 15.9933 54.0976 16.26 54.9509 16.26C56.1776 16.26 57.0443 15.7467 57.5509 14.72H60.0109C59.6776 15.7333 59.0709 16.5667 58.1909 17.22C57.3243 17.86 56.2443 18.18 54.9509 18.18C53.8976 18.18 52.9509 17.9467 52.1109 17.48C51.2843 17 50.6309 16.3333 50.1509 15.48C49.6843 14.6133 49.4509 13.6133 49.4509 12.48C49.4509 11.3467 49.6776 10.3533 50.1309 9.5C50.5976 8.63333 51.2443 7.96667 52.0709 7.5C52.9109 7.03333 53.8709 6.8 54.9509 6.8C55.9909 6.8 56.9176 7.02667 57.7309 7.48C58.5443 7.93333 59.1776 8.57333 59.6309 9.4C60.0843 10.2133 60.3109 11.1533 60.3109 12.22ZM57.9309 11.5C57.9176 10.66 57.6176 9.98667 57.0309 9.48C56.4443 8.97333 55.7176 8.72 54.8509 8.72C54.0643 8.72 53.3909 8.97333 52.8309 9.48C52.2709 9.97333 51.9376 10.6467 51.8309 11.5H57.9309ZM77.3547 6.98L73.9347 18H71.5347L69.3147 9.86L67.0947 18H64.6947L61.2547 6.98H63.5747L65.8747 15.84L68.2147 6.98H70.5947L72.8347 15.8L75.1147 6.98H77.3547ZM83.4939 12.44C83.4939 11.3333 83.7206 10.3533 84.1739 9.5C84.6406 8.64667 85.2672 7.98667 86.0539 7.52C86.8539 7.04 87.7406 6.8 88.7139 6.8C89.4339 6.8 90.1406 6.96 90.8339 7.28C91.5406 7.58667 92.1006 8 92.5139 8.52V3.2H94.8139V18H92.5139V16.34C92.1406 16.8733 91.6206 17.3133 90.9539 17.66C90.3006 18.0067 89.5472 18.18 88.6939 18.18C87.7339 18.18 86.8539 17.94 86.0539 17.46C85.2672 16.9667 84.6406 16.2867 84.1739 15.42C83.7206 14.54 83.4939 13.5467 83.4939 12.44ZM92.5139 12.48C92.5139 11.72 92.3539 11.06 92.0339 10.5C91.7272 9.94 91.3206 9.51333 90.8139 9.22C90.3072 8.92667 89.7606 8.78 89.1739 8.78C88.5872 8.78 88.0406 8.92667 87.5339 9.22C87.0272 9.5 86.6139 9.92 86.2939 10.48C85.9872 11.0267 85.8339 11.68 85.8339 12.44C85.8339 13.2 85.9872 13.8667 86.2939 14.44C86.6139 15.0133 87.0272 15.4533 87.5339 15.76C88.0539 16.0533 88.6006 16.2 89.1739 16.2C89.7606 16.2 90.3072 16.0533 90.8139 15.76C91.3206 15.4667 91.7272 15.04 92.0339 14.48C92.3539 13.9067 92.5139 13.24 92.5139 12.48ZM97.0486 12.44C97.0486 11.3333 97.2753 10.3533 97.7286 9.5C98.1953 8.64667 98.8219 7.98667 99.6086 7.52C100.409 7.04 101.289 6.8 102.249 6.8C103.115 6.8 103.869 6.97333 104.509 7.32C105.162 7.65333 105.682 8.07333 106.069 8.58V6.98H108.369V18H106.069V16.36C105.682 16.88 105.155 17.3133 104.489 17.66C103.822 18.0067 103.062 18.18 102.209 18.18C101.262 18.18 100.395 17.94 99.6086 17.46C98.8219 16.9667 98.1953 16.2867 97.7286 15.42C97.2753 14.54 97.0486 13.5467 97.0486 12.44ZM106.069 12.48C106.069 11.72 105.909 11.06 105.589 10.5C105.282 9.94 104.875 9.51333 104.369 9.22C103.862 8.92667 103.315 8.78 102.729 8.78C102.142 8.78 101.595 8.92667 101.089 9.22C100.582 9.5 100.169 9.92 99.8486 10.48C99.5419 11.0267 99.3886 11.68 99.3886 12.44C99.3886 13.2 99.5419 13.8667 99.8486 14.44C100.169 15.0133 100.582 15.4533 101.089 15.76C101.609 16.0533 102.155 16.2 102.729 16.2C103.315 16.2 103.862 16.0533 104.369 15.76C104.875 15.4667 105.282 15.04 105.589 14.48C105.909 13.9067 106.069 13.24 106.069 12.48ZM117.719 5.52C117.305 5.52 116.959 5.38 116.679 5.1C116.399 4.82 116.259 4.47333 116.259 4.06C116.259 3.64667 116.399 3.3 116.679 3.02C116.959 2.74 117.305 2.6 117.719 2.6C118.119 2.6 118.459 2.74 118.739 3.02C119.019 3.3 119.159 3.64667 119.159 4.06C119.159 4.47333 119.019 4.82 118.739 5.1C118.459 5.38 118.119 5.52 117.719 5.52ZM118.839 6.98V18H116.559V6.98H118.839ZM135.172 6.8C136.039 6.8 136.812 6.98 137.492 7.34C138.185 7.7 138.725 8.23333 139.112 8.94C139.512 9.64667 139.712 10.5 139.712 11.5V18H137.452V11.84C137.452 10.8533 137.205 10.1 136.712 9.58C136.219 9.04667 135.545 8.78 134.692 8.78C133.839 8.78 133.159 9.04667 132.652 9.58C132.159 10.1 131.912 10.8533 131.912 11.84V18H129.652V11.84C129.652 10.8533 129.405 10.1 128.912 9.58C128.419 9.04667 127.745 8.78 126.892 8.78C126.039 8.78 125.359 9.04667 124.852 9.58C124.359 10.1 124.112 10.8533 124.112 11.84V18H121.832V6.98H124.112V8.24C124.485 7.78667 124.959 7.43333 125.532 7.18C126.105 6.92667 126.719 6.8 127.372 6.8C128.252 6.8 129.039 6.98667 129.732 7.36C130.425 7.73333 130.959 8.27333 131.332 8.98C131.665 8.31333 132.185 7.78667 132.892 7.4C133.599 7 134.359 6.8 135.172 6.8ZM141.853 12.44C141.853 11.3333 142.08 10.3533 142.533 9.5C143 8.64667 143.627 7.98667 144.413 7.52C145.213 7.04 146.093 6.8 147.053 6.8C147.92 6.8 148.673 6.97333 149.313 7.32C149.967 7.65333 150.487 8.07333 150.873 8.58V6.98H153.173V18H150.873V16.36C150.487 16.88 149.96 17.3133 149.293 17.66C148.627 18.0067 147.867 18.18 147.013 18.18C146.067 18.18 145.2 17.94 144.413 17.46C143.627 16.9667 143 16.2867 142.533 15.42C142.08 14.54 141.853 13.5467 141.853 12.44ZM150.873 12.48C150.873 11.72 150.713 11.06 150.393 10.5C150.087 9.94 149.68 9.51333 149.173 9.22C148.667 8.92667 148.12 8.78 147.533 8.78C146.947 8.78 146.4 8.92667 145.893 9.22C145.387 9.5 144.973 9.92 144.653 10.48C144.347 11.0267 144.193 11.68 144.193 12.44C144.193 13.2 144.347 13.8667 144.653 14.44C144.973 15.0133 145.387 15.4533 145.893 15.76C146.413 16.0533 146.96 16.2 147.533 16.2C148.12 16.2 148.667 16.0533 149.173 15.76C149.68 15.4667 150.087 15.04 150.393 14.48C150.713 13.9067 150.873 13.24 150.873 12.48ZM160.608 6.8C161.461 6.8 162.215 6.97333 162.868 7.32C163.535 7.65333 164.055 8.07333 164.428 8.58V6.98H166.728V18.18C166.728 19.1933 166.515 20.0933 166.088 20.88C165.661 21.68 165.041 22.3067 164.228 22.76C163.428 23.2133 162.468 23.44 161.348 23.44C159.855 23.44 158.615 23.0867 157.628 22.38C156.641 21.6867 156.081 20.74 155.948 19.54H158.208C158.381 20.1133 158.748 20.5733 159.308 20.92C159.881 21.28 160.561 21.46 161.348 21.46C162.268 21.46 163.008 21.18 163.568 20.62C164.141 20.06 164.428 19.2467 164.428 18.18V16.34C164.041 16.86 163.515 17.3 162.848 17.66C162.195 18.0067 161.448 18.18 160.608 18.18C159.648 18.18 158.768 17.94 157.968 17.46C157.181 16.9667 156.555 16.2867 156.088 15.42C155.635 14.54 155.408 13.5467 155.408 12.44C155.408 11.3333 155.635 10.3533 156.088 9.5C156.555 8.64667 157.181 7.98667 157.968 7.52C158.768 7.04 159.648 6.8 160.608 6.8ZM164.428 12.48C164.428 11.72 164.268 11.06 163.948 10.5C163.641 9.94 163.235 9.51333 162.728 9.22C162.221 8.92667 161.675 8.78 161.088 8.78C160.501 8.78 159.955 8.92667 159.448 9.22C158.941 9.5 158.528 9.92 158.208 10.48C157.901 11.0267 157.748 11.68 157.748 12.44C157.748 13.2 157.901 13.8667 158.208 14.44C158.528 15.0133 158.941 15.4533 159.448 15.76C159.968 16.0533 160.515 16.2 161.088 16.2C161.675 16.2 162.221 16.0533 162.728 15.76C163.235 15.4667 163.641 15.04 163.948 14.48C164.268 13.9067 164.428 13.24 164.428 12.48ZM179.823 12.22C179.823 12.6333 179.796 13.0067 179.743 13.34H171.323C171.389 14.22 171.716 14.9267 172.303 15.46C172.889 15.9933 173.609 16.26 174.463 16.26C175.689 16.26 176.556 15.7467 177.063 14.72H179.523C179.189 15.7333 178.583 16.5667 177.703 17.22C176.836 17.86 175.756 18.18 174.463 18.18C173.409 18.18 172.463 17.9467 171.623 17.48C170.796 17 170.143 16.3333 169.663 15.48C169.196 14.6133 168.963 13.6133 168.963 12.48C168.963 11.3467 169.189 10.3533 169.643 9.5C170.109 8.63333 170.756 7.96667 171.583 7.5C172.423 7.03333 173.383 6.8 174.463 6.8C175.503 6.8 176.429 7.02667 177.243 7.48C178.056 7.93333 178.689 8.57333 179.143 9.4C179.596 10.2133 179.823 11.1533 179.823 12.22ZM177.443 11.5C177.429 10.66 177.129 9.98667 176.543 9.48C175.956 8.97333 175.229 8.72 174.363 8.72C173.576 8.72 172.903 8.97333 172.343 9.48C171.783 9.97333 171.449 10.6467 171.343 11.5H177.443ZM195.406 6.8C196.273 6.8 197.046 6.98 197.726 7.34C198.42 7.7 198.96 8.23333 199.346 8.94C199.746 9.64667 199.946 10.5 199.946 11.5V18H197.686V11.84C197.686 10.8533 197.44 10.1 196.946 9.58C196.453 9.04667 195.78 8.78 194.926 8.78C194.073 8.78 193.393 9.04667 192.886 9.58C192.393 10.1 192.146 10.8533 192.146 11.84V18H189.886V11.84C189.886 10.8533 189.64 10.1 189.146 9.58C188.653 9.04667 187.98 8.78 187.126 8.78C186.273 8.78 185.593 9.04667 185.086 9.58C184.593 10.1 184.346 10.8533 184.346 11.84V18H182.066V6.98H184.346V8.24C184.72 7.78667 185.193 7.43333 185.766 7.18C186.34 6.92667 186.953 6.8 187.606 6.8C188.486 6.8 189.273 6.98667 189.966 7.36C190.66 7.73333 191.193 8.27333 191.566 8.98C191.9 8.31333 192.42 7.78667 193.126 7.4C193.833 7 194.593 6.8 195.406 6.8Z" fill="#275845"/>
<rect x="1" y="28" width="284" height="285" rx="4" stroke="#9D9A95" stroke-width="2" stroke-dasharray="3 3"/>
<defs>
<clipPath id="clip0_101_72">
<rect width="109" height="110" fill="white" transform="translate(89 116)"/>
</clipPath>
</defs>
</svg>
